info face="Amareleta" size=40 bold=0 italic=0 charset="" unicode=0 stretchH=100 smooth=1 aa=1 padding=0,0,0,0 spacing=1,1
common lineHeight=59 base=35 scaleW=512 scaleH=512 pages=1 packed=0
page id=0 file="font_gameover_4.png"
chars count=93
char id=32   x=0     y=0     width=0     height=0     xoffset=0     yoffset=35    xadvance=20     page=0  chnl=0 
char id=81   x=0     y=0     width=35     height=48     xoffset=-1     yoffset=1    xadvance=36     page=0  chnl=0 
char id=75   x=35     y=0     width=38     height=48     xoffset=-1     yoffset=-3    xadvance=39     page=0  chnl=0 
char id=63   x=73     y=0     width=31     height=47     xoffset=-1     yoffset=-1    xadvance=32     page=0  chnl=0 
char id=104   x=104     y=0     width=35     height=47     xoffset=-1     yoffset=0    xadvance=36     page=0  chnl=0 
char id=103   x=139     y=0     width=35     height=47     xoffset=-1     yoffset=10    xadvance=36     page=0  chnl=0 
char id=38   x=174     y=0     width=38     height=46     xoffset=-1     yoffset=0    xadvance=39     page=0  chnl=0 
char id=113   x=212     y=0     width=32     height=46     xoffset=-1     yoffset=10    xadvance=33     page=0  chnl=0 
char id=112   x=244     y=0     width=34     height=46     xoffset=-1     yoffset=9    xadvance=35     page=0  chnl=0 
char id=102   x=278     y=0     width=34     height=46     xoffset=-1     yoffset=-1    xadvance=35     page=0  chnl=0 
char id=82   x=312     y=0     width=40     height=46     xoffset=-1     yoffset=1    xadvance=41     page=0  chnl=0 
char id=108   x=352     y=0     width=21     height=45     xoffset=-1     yoffset=0    xadvance=22     page=0  chnl=0 
char id=79   x=373     y=0     width=35     height=45     xoffset=-1     yoffset=-1    xadvance=36     page=0  chnl=0 
char id=37   x=408     y=0     width=38     height=44     xoffset=-1     yoffset=0    xadvance=39     page=0  chnl=0 
char id=33   x=446     y=0     width=19     height=44     xoffset=-1     yoffset=2    xadvance=20     page=0  chnl=0 
char id=116   x=465     y=0     width=30     height=44     xoffset=-1     yoffset=2    xadvance=31     page=0  chnl=0 
char id=80   x=0     y=48     width=39     height=44     xoffset=-1     yoffset=-1    xadvance=40     page=0  chnl=0 
char id=66   x=39     y=48     width=38     height=44     xoffset=-1     yoffset=-2    xadvance=39     page=0  chnl=0 
char id=65   x=77     y=48     width=41     height=44     xoffset=-1     yoffset=-1    xadvance=42     page=0  chnl=0 
char id=36   x=118     y=48     width=27     height=43     xoffset=-1     yoffset=1    xadvance=28     page=0  chnl=0 
char id=124   x=145     y=48     width=16     height=43     xoffset=-1     yoffset=-1    xadvance=17     page=0  chnl=0 
char id=86   x=161     y=48     width=38     height=43     xoffset=-1     yoffset=-1    xadvance=39     page=0  chnl=0 
char id=76   x=199     y=48     width=35     height=43     xoffset=-1     yoffset=0    xadvance=36     page=0  chnl=0 
char id=125   x=234     y=48     width=21     height=42     xoffset=-1     yoffset=1    xadvance=22     page=0  chnl=0 
char id=41   x=255     y=48     width=24     height=42     xoffset=-1     yoffset=-1    xadvance=25     page=0  chnl=0 
char id=105   x=279     y=48     width=20     height=42     xoffset=-1     yoffset=5    xadvance=21     page=0  chnl=0 
char id=100   x=299     y=48     width=32     height=42     xoffset=-1     yoffset=5    xadvance=33     page=0  chnl=0 
char id=90   x=331     y=48     width=43     height=42     xoffset=-1     yoffset=1    xadvance=44     page=0  chnl=0 
char id=88   x=374     y=48     width=39     height=42     xoffset=-1     yoffset=0    xadvance=40     page=0  chnl=0 
char id=85   x=413     y=48     width=39     height=42     xoffset=-1     yoffset=-1    xadvance=40     page=0  chnl=0 
char id=83   x=452     y=48     width=33     height=42     xoffset=-1     yoffset=2    xadvance=34     page=0  chnl=0 
char id=78   x=0     y=92     width=40     height=42     xoffset=-1     yoffset=1    xadvance=41     page=0  chnl=0 
char id=77   x=40     y=92     width=39     height=42     xoffset=-1     yoffset=1    xadvance=40     page=0  chnl=0 
char id=73   x=79     y=92     width=20     height=42     xoffset=-1     yoffset=1    xadvance=21     page=0  chnl=0 
char id=64   x=99     y=92     width=38     height=41     xoffset=-1     yoffset=2    xadvance=40     page=0  chnl=0 
char id=40   x=137     y=92     width=24     height=41     xoffset=-1     yoffset=0    xadvance=25     page=0  chnl=0 
char id=121   x=161     y=92     width=35     height=41     xoffset=-1     yoffset=10    xadvance=36     page=0  chnl=0 
char id=120   x=196     y=92     width=37     height=41     xoffset=-1     yoffset=6    xadvance=38     page=0  chnl=0 
char id=87   x=233     y=92     width=44     height=41     xoffset=-1     yoffset=2    xadvance=45     page=0  chnl=0 
char id=84   x=277     y=92     width=40     height=41     xoffset=-1     yoffset=2    xadvance=41     page=0  chnl=0 
char id=71   x=317     y=92     width=34     height=41     xoffset=-1     yoffset=1    xadvance=35     page=0  chnl=0 
char id=67   x=351     y=92     width=38     height=41     xoffset=-1     yoffset=0    xadvance=39     page=0  chnl=0 
char id=62   x=389     y=92     width=25     height=40     xoffset=-1     yoffset=3    xadvance=26     page=0  chnl=0 
char id=60   x=414     y=92     width=30     height=40     xoffset=-1     yoffset=3    xadvance=31     page=0  chnl=0 
char id=56   x=444     y=92     width=29     height=40     xoffset=-1     yoffset=3    xadvance=30     page=0  chnl=0 
char id=55   x=473     y=92     width=29     height=40     xoffset=-1     yoffset=3    xadvance=30     page=0  chnl=0 
char id=54   x=0     y=134     width=33     height=40     xoffset=-1     yoffset=4    xadvance=34     page=0  chnl=0 
char id=53   x=33     y=134     width=30     height=40     xoffset=-1     yoffset=3    xadvance=31     page=0  chnl=0 
char id=118   x=63     y=134     width=35     height=40     xoffset=-1     yoffset=5    xadvance=36     page=0  chnl=0 
char id=110   x=98     y=134     width=30     height=40     xoffset=-1     yoffset=7    xadvance=31     page=0  chnl=0 
char id=106   x=128     y=134     width=28     height=40     xoffset=-1     yoffset=6    xadvance=29     page=0  chnl=0 
char id=89   x=156     y=134     width=38     height=40     xoffset=-1     yoffset=2    xadvance=40     page=0  chnl=0 
char id=74   x=194     y=134     width=31     height=40     xoffset=-1     yoffset=3    xadvance=32     page=0  chnl=0 
char id=72   x=225     y=134     width=36     height=40     xoffset=-1     yoffset=3    xadvance=37     page=0  chnl=0 
char id=70   x=261     y=134     width=33     height=40     xoffset=-1     yoffset=3    xadvance=34     page=0  chnl=0 
char id=47   x=294     y=134     width=24     height=39     xoffset=-1     yoffset=3    xadvance=25     page=0  chnl=0 
char id=123   x=318     y=134     width=21     height=39     xoffset=-1     yoffset=1    xadvance=22     page=0  chnl=0 
char id=48   x=339     y=134     width=27     height=39     xoffset=-1     yoffset=0    xadvance=28     page=0  chnl=0 
char id=52   x=366     y=134     width=29     height=39     xoffset=-1     yoffset=2    xadvance=30     page=0  chnl=0 
char id=50   x=395     y=134     width=31     height=39     xoffset=-1     yoffset=1    xadvance=32     page=0  chnl=0 
char id=49   x=426     y=134     width=23     height=39     xoffset=-1     yoffset=2    xadvance=24     page=0  chnl=0 
char id=117   x=449     y=134     width=33     height=39     xoffset=-1     yoffset=4    xadvance=34     page=0  chnl=0 
char id=107   x=0     y=174     width=31     height=39     xoffset=-1     yoffset=4    xadvance=32     page=0  chnl=0 
char id=98   x=31     y=174     width=31     height=39     xoffset=-1     yoffset=7    xadvance=32     page=0  chnl=0 
char id=68   x=62     y=174     width=37     height=39     xoffset=-1     yoffset=3    xadvance=38     page=0  chnl=0 
char id=57   x=99     y=174     width=26     height=38     xoffset=-1     yoffset=4    xadvance=27     page=0  chnl=0 
char id=122   x=125     y=174     width=33     height=38     xoffset=-1     yoffset=8    xadvance=34     page=0  chnl=0 
char id=111   x=158     y=174     width=33     height=38     xoffset=-1     yoffset=8    xadvance=34     page=0  chnl=0 
char id=101   x=191     y=174     width=32     height=38     xoffset=-1     yoffset=8    xadvance=33     page=0  chnl=0 
char id=99   x=223     y=174     width=31     height=38     xoffset=-1     yoffset=8    xadvance=32     page=0  chnl=0 
char id=97   x=254     y=174     width=31     height=38     xoffset=-1     yoffset=7    xadvance=32     page=0  chnl=0 
char id=69   x=285     y=174     width=35     height=38     xoffset=-1     yoffset=3    xadvance=36     page=0  chnl=0 
char id=93   x=320     y=174     width=26     height=37     xoffset=-1     yoffset=2    xadvance=27     page=0  chnl=0 
char id=59   x=346     y=174     width=21     height=37     xoffset=-1     yoffset=19    xadvance=22     page=0  chnl=0 
char id=51   x=367     y=174     width=26     height=37     xoffset=-1     yoffset=3    xadvance=27     page=0  chnl=0 
char id=115   x=393     y=174     width=29     height=37     xoffset=-1     yoffset=8    xadvance=30     page=0  chnl=0 
char id=114   x=422     y=174     width=31     height=37     xoffset=-1     yoffset=9    xadvance=32     page=0  chnl=0 
char id=42   x=453     y=174     width=31     height=36     xoffset=-1     yoffset=7    xadvance=32     page=0  chnl=0 
char id=35   x=0     y=213     width=35     height=36     xoffset=-1     yoffset=7    xadvance=36     page=0  chnl=0 
char id=91   x=35     y=213     width=24     height=36     xoffset=-1     yoffset=2    xadvance=25     page=0  chnl=0 
char id=96   x=59     y=213     width=26     height=36     xoffset=-1     yoffset=3    xadvance=27     page=0  chnl=0 
char id=92   x=85     y=213     width=26     height=35     xoffset=-1     yoffset=4    xadvance=27     page=0  chnl=0 
char id=58   x=111     y=213     width=18     height=35     xoffset=-1     yoffset=8    xadvance=19     page=0  chnl=0 
char id=119   x=129     y=213     width=42     height=35     xoffset=-1     yoffset=8    xadvance=43     page=0  chnl=0 
char id=109   x=171     y=213     width=44     height=35     xoffset=-1     yoffset=9    xadvance=45     page=0  chnl=0 
char id=43   x=215     y=213     width=30     height=28     xoffset=-1     yoffset=11    xadvance=31     page=0  chnl=0 
char id=44   x=245     y=213     width=22     height=26     xoffset=-1     yoffset=27    xadvance=23     page=0  chnl=0 
char id=39   x=267     y=213     width=13     height=23     xoffset=-1     yoffset=0    xadvance=14     page=0  chnl=0 
char id=34   x=280     y=213     width=20     height=23     xoffset=-1     yoffset=-1    xadvance=22     page=0  chnl=0 
char id=61   x=300     y=213     width=24     height=22     xoffset=-1     yoffset=14    xadvance=25     page=0  chnl=0 
char id=126   x=324     y=213     width=27     height=18     xoffset=-1     yoffset=7    xadvance=28     page=0  chnl=0 
char id=46   x=351     y=213     width=18     height=18     xoffset=-1     yoffset=31    xadvance=19     page=0  chnl=0 
char id=95   x=369     y=213     width=31     height=16     xoffset=-1     yoffset=19    xadvance=32     page=0  chnl=0 
char id=45   x=400     y=213     width=28     height=16     xoffset=-1     yoffset=16    xadvance=29     page=0  chnl=0 
kernings count=-1
